<svg width="30" height="25" viewBox="0 0 30 25" fill="none" xmlns="http://www.w3.org/2000/svg">
<path d="M3.33829 0.000244141H26.4701C28.3076 0.000244141 29.775 1.29438 29.775 2.89507C29.775 4.49602 28.3076 5.77304 26.4701 5.77304H3.33829C1.51958 5.77304 0.0334473 4.49602 0.0334473 2.89507C0.0334473 1.29438 1.51958 0.000244141 3.33829 0.000244141Z" fill="#052C46"/>
<path d="M3.39854 9.62195H26.5307C28.3491 9.62195 29.8355 10.8992 29.8355 12.4997C29.8355 14.1006 28.3491 15.3953 26.5307 15.3953H3.39854C1.56046 15.3953 0.0939941 14.1006 0.0939941 12.4997C0.0939941 10.899 1.56046 9.62195 3.39854 9.62195Z" fill="#052C46"/>
<path d="M3.35777 19.2269H26.4899C28.3274 19.2269 29.7947 20.5211 29.7947 22.1212C29.7947 23.7051 28.3274 25.0003 26.4899 25.0003H3.35777C1.51969 25.0003 0.0532227 23.7051 0.0532227 22.1212C0.0532227 20.5211 1.51969 19.2269 3.35777 19.2269Z" fill="#052C46"/>
</svg>
