<?xml version="1.0" encoding="UTF-8"?>
<svg xmlns="http://www.w3.org/2000/svg" xmlns:xlink="http://www.w3.org/1999/xlink" width="15pt" height="18pt" viewBox="0 0 15 18" version="1.1">
<g id="surface1">
<path style=" stroke:none;fill-rule:nonzero;fill:rgb(100%,100%,100%);fill-opacity:1;" d="M 7.289062 11.742188 C 3.359375 11.742188 0 12.347656 0 14.773438 C 0 17.195312 3.335938 17.824219 7.289062 17.824219 C 11.222656 17.824219 14.582031 17.21875 14.582031 14.792969 C 14.582031 12.367188 11.246094 11.742188 7.289062 11.742188 Z M 7.289062 11.742188 "/>
<path style=" stroke:none;fill-rule:nonzero;fill:rgb(100%,100%,100%);fill-opacity:1;" d="M 7.289062 9.433594 C 9.96875 9.433594 12.113281 7.332031 12.113281 4.714844 C 12.113281 2.097656 9.96875 0 7.289062 0 C 4.613281 0 2.464844 2.097656 2.464844 4.714844 C 2.464844 7.332031 4.613281 9.433594 7.289062 9.433594 Z M 7.289062 9.433594 "/>
</g>
</svg>
