<?xml version="1.0" encoding="UTF-8"?>
<svg xmlns="http://www.w3.org/2000/svg" xmlns:xlink="http://www.w3.org/1999/xlink" width="15pt" height="15pt" viewBox="0 0 15 15" version="1.1">
<g id="surface1">
<path style="fill:none;stroke-width:4;stroke-linecap:butt;stroke-linejoin:miter;stroke:rgb(88.627451%,5.098039%,9.411765%);stroke-opacity:1;stroke-miterlimit:4;" d="M 23.823177 12.976562 C 23.823177 19.054688 18.93099 23.960938 12.908594 23.960938 C 6.894271 23.960938 2.002083 19.054688 2.002083 12.976562 C 2.002083 6.90625 6.894271 2 12.908594 2 C 18.93099 2 23.823177 6.90625 23.823177 12.976562 Z M 23.823177 12.976562 " transform="matrix(0.483871,0,0,0.5,0,0)"/>
<path style=" stroke:none;fill-rule:nonzero;fill:rgb(88.627451%,5.098039%,9.411765%);fill-opacity:1;" d="M 13.566406 14.964844 C 13.324219 14.957031 13.09375 14.855469 12.921875 14.679688 L 11.441406 12.894531 C 11.125 12.59375 11.097656 12.085938 11.382812 11.75 C 11.515625 11.613281 11.699219 11.535156 11.886719 11.535156 C 12.078125 11.535156 12.257812 11.613281 12.390625 11.75 L 14.253906 13.289062 C 14.519531 13.570312 14.601562 13.992188 14.464844 14.363281 C 14.324219 14.730469 13.988281 14.980469 13.605469 15 Z M 13.566406 14.964844 "/>
</g>
</svg>
