<svg width="33" height="31" viewBox="0 0 33 31" fill="none" xmlns="http://www.w3.org/2000/svg">
<path d="M23.4127 8.99092L30.2927 9.99808C32.2435 10.2836 33.0252 12.7177 31.6157 14.1168L26.6437 19.0509C26.0838 19.6066 25.8292 20.4064 25.9622 21.1898L27.1454 28.1473C27.4808 30.1202 25.4437 31.6275 23.6977 30.698L17.5415 27.4201C16.8482 27.0511 16.0204 27.0519 15.3282 27.4227L9.17948 30.7158C7.43599 31.6496 5.395 30.1471 5.72575 28.1734L6.89249 21.213C7.02372 20.4292 6.76734 19.6298 6.20596 19.0756L1.22328 14.1535C-0.189817 12.7577 0.586101 10.3217 2.53662 10.0315L9.41404 9.008C10.1885 8.89286 10.8575 8.39782 11.2029 7.68449L14.2719 1.34916C15.1422 -0.447236 17.6627 -0.450505 18.537 1.34408L21.6206 7.67178C21.9678 8.38402 22.6379 8.87761 23.4127 8.99092Z" fill="#282D2F"/>
</svg>
