{
	"disclosure-layout#minha-conta-mob": {
		"children": ["disclosure-trigger#minha-conta-mob", "disclosure-content#minha-conta-mob"]
	  },
	  "disclosure-trigger#minha-conta-mob": {
		"children": ["rich-text#minha-conta-title","disclosure-state-indicator"],
		"props": {
			"blockClass": "disclosure-title-footer",
			"as": "div"
		}
	  },
	  "disclosure-content#minha-conta-mob": {
		"children": ["rich-text#minha-conta-content-mob"],
		"props": {
			"blockClass": "disclosure-title-footer-mob"
		}
	  },
	  "rich-text#minha-conta-title": {
		"props": {
		  "text": "Minha Conta"
		}
	  },
	  "rich-text#minha-conta-content-mob": {
		"props": {
			"text": "#### Conta\n[Minha Conta](/account)\n[Pedidos](/account#/orders)\n[Login/Cadastro](/account)\n[Meu carrinho](/checkout/#/cart)"			
		}
	  },

	  "disclosure-layout#info-mob": {
		"children": ["disclosure-trigger#info-mob", "disclosure-content#info-mob"]
	  },
	  "disclosure-trigger#info-mob": {
		"children": ["rich-text#info-title","disclosure-state-indicator"],
		"props": {
			"blockClass": "disclosure-title-footer",
			"as": "div"
		}
	  },
	  "disclosure-content#info-mob": {
		"children": ["rich-text#info-content-mob"],
		"props": {
			"blockClass": "disclosure-title-footer-mob"
		}
	  },
	  "rich-text#info-title": {
		"props": {
		  "text": "Informações"
		}
	  },
	  "rich-text#info-content-mob": {
		"props": {
			"text": "#### Links Rápidos\n[Política de Envio](/troca-e-devolucao)\n[Dúvidas Frequentes](/duvidas-frequentes)\n[Política de Privacidade](/politica-de-privacidade)\n[Nossas Lojas](/nossas-lojas)\n[Contato](/contato)"
		}
	  },
	
	  "disclosure-state-indicator": {
		"props": {
		  "Show": "icon-caret#down",
		  "Hide": "icon-caret#up"
		}
	  },
	  "icon-caret#down": {
		"props": {
		  "orientation": "down"
		}
	  },
	  "icon-caret#up": {
		"props": {
		  "orientation": "up"
		}
	  }
}