{
  "store.custom#about-us": {
    "blocks": ["flex-layout.row#about-us-top"]
  },
  "flex-layout.row#about-us-top": {
    "children": [
      "flex-layout.col#text-about-us"
    ],
    "props": {
      "blockClass": "pg-institucional"
    }
  },
  "flex-layout.col#text-about-us": {
    "children": [
      "rich-text#about-title",
      "rich-text#about-content-top"
    ],
    "props": {
      "preventVerticalStretch": true
    }
  },
  "rich-text#about-title": {
    "props": {
      "textPosition": "CENTER",
      "text": "# Quem Somos",
      "blockClass": "titulosvitrine"
    }
  },
  "rich-text#about-content-top": {
    "props": {
      "textPosition": "LEFT",
      "text": "Com visão de empreendedor , o Sr Antônio Araújo de Pádua começou um pequeno  negócio em 1989 no bairro Coroado. No início, Sr. Antônio de Pádua e sua esposa, Sra. Edmilza Amorim eram os admnistradores da empresa. Com o passar dos tempos, a Sra. Edmilza começou a vivenciar o dia a dia de uma empresa de material de construção. Em seu primeiro contato com o setor, a Sra. Edmilza foi atendente de balcão e operadora de caixa, ainda cuidando de alguns processos administrativos colhendo informações sobre diferentes tipos de mercadorias observando a aceitação dos clientes. \n\n Mesmo com e essa visão, empreender ainda não estava em seus planos, mas, com a saga de empreendedor, partiu para a ação, sendo necessário ir atrás de informações para se aperfeiçoar na área.  Ao entrar no negócio, a prática os deixou em sintonia com o mercado, o know how foi determinante e ajudou bastante servindo como base para a carreira empresarial na comercialização de produtos tintométricos e negociação com fornecedores.\n\n Quinze anos atuando no mercado, a família unida e visionária, identificando uma carência de material de marcenaria, não perdeu a oportunidade em trazer esse segmento para Manaus. \n\n Como parte do planejamento, foi criado um espaço amplo e moderno, dedicado aos marceneiros, sendo aplicado o conceito de atendimento assistido, isto é, dando liberdade para o cliente escolher o produto e ter contato direto com a equipe de vendas e a gestão da empresa."
    }
  }
}