{
  "header": {
    "blocks": ["header-layout.desktop", "header-layout.mobile"]
  },
  "header.full": {
    "blocks": ["header-layout.desktop", "header-layout.mobile"]
  },

  "header-layout.desktop": {
    "children": [
      "header-row#top-bar",
      "header-row#header-stick"
      
    ]
  },
  "header-row#header-stick":{
    "children": [
      "flex-layout.row#top-main",
      "header-row#main-header",
      "header-row#main-menu"
    ],
    "props":{
      "sticky": true,
      "blockClass": "stick__header_desk"
    }
  },
  "header-row#top-bar": {
    "children": [
      "flex-layout.row#top-bar"
    ],
    "props": {
      "fullWidth": false,
      "blockClass": "top-bar"
    }
  },
  "flex-layout.row#top-bar": {
    "children": ["rich-text#texto1-topbar","rich-text#texto2-topbar"],
    "props": {
      "blockClass": "flex-top-bar",
      "marginTop":6,
      "paddingTop": 6,
      "paddingBottom": 6,
      "width":"100%",
      "fullWidth":true
    }
  },
  "rich-text#texto1-topbar": {
		"props": {
			"textAlignment": "LEFT",
			"textPosition": "LEFT",
			"text": "20% OFF no seu primeiro pedido",
			"textColor": "c-on-base--inverted",
      "blockClass": "text-topbar1",
      "width": "45%"
		}
	},
  "rich-text#texto2-topbar": {
		"props": {
			"textAlignment": "LEFT",
			"textPosition": "LEFT",
			"text": "no cupom **noparaibatem**",
			"textColor": "c-on-base--inverted",
      "blockClass": "text-topbar2"

		}
	},
  "flex-layout.row#top-main": {
    "props": {
      "blockClass": "menu-link-top",
      "horizontalAlign": "center",
      "preventHorizontalStretch": true,
      "preventVerticalStretch": true,
      "fullWidth": true
    },
    "children": [
      "vtex.menu@2.x:menu#websites",
      "flex-layout.col#spacer",
      "vtex.menu@2.x:menu#institutional"
    ]
  },
  "header-row#main-header": {
    "children": [
      "logo#desk",
      "search-bar",
      "login",
      "minicart.v2"
    ],
    "props": {
      "fullWidth": false,
      "blockClass": "main-header"
    }
  },
  "search-bar": {
    "props": {
      "placeholder": "O que você está procurando?",
      "inputType": "text"
    }
  },
  "logo#desk": {
    "props": {
      "title": "Ferragens Paraíba - ",
      "href": "/",
      "url": "assets/logo/top-logo.png"
    }
  },
  "logo#mobile": {
    "props": {
      "title": "Ferragens Paraíba - ",
      "href": "/",
      "url": "assets/logo/top-logo-mob.png"
    }
  },

  "login": {
    "props": {
      "iconLabel":"Entre ou Cadastre-se",
      "hideIconLabel":false,
      "optionsTitle":"Escolha como deseja entrar:",
      "emailAndPasswordTitle": "Entrar",
      "accessCodeTitle": "Log-in com código de acesso",
      "emailPlaceholder": "E-mail",
      "showPasswordVerificationIntoTooltip": true,
      "showIconProfile": true,
      "logInButtonBehavior": "link"
    }
  },
  
  "header-row#main-menu": {
    "children": [
      "vtex.menu@2.x:menu#menu-departments"
    ],
    "props": {
      "fullWidth": false,
      "blockClass": "main-menu"
    }
  },

  "flex-layout.col#spacer": {
    "props": {
      "width": "grow"
    }
  },
  "header-layout.mobile": {
    "children": ["sticky-layout#mobile"]
  },
  "sticky-layout#mobile": {
    "children": ["flex-layout.row#mobile", "flex-layout.row#search-bar-mobile"],
    "props":{
      "blockClass":"main-header-mobile-all"
    }
  },
  "flex-layout.row#mobile": {
    "children": [
      "category-menu#category-menu-mobile",
      "logo#mobile",
      "flex-layout.col#spacer",
      "login",
      "minicart.v2"
    ],
    "props": {
      "blockClass": "main-header-mobile",
      "preventHorizontalStretch": true,
      "preserveLayoutOnMobile": true,
      "fullWidth": true
    }
  },
  "flex-layout.row#search-bar-mobile": {
    "children": ["search-bar"],
    "props": {
      "blockClass": "search-bar-row-mobile"
    }
  },
  "drawer": {
    "children": []
  },
  "minicart.v2": {
    "props": {
      "MinicartIcon": "icon-cart#minicart-icon"
    },
    "children": ["minicart-base-content"]
  },
  "icon-cart#minicart-icon": {
    "props": {
      "size": 28
    }
  },
  "minicart-base-content": {
    "blocks": ["minicart-empty-state"],
    "children": ["minicart-product-list", "flex-layout.row#minicart-footer"]
  },
  "flex-layout.row#minicart-footer": {
    "props": {
      "blockClass": "minicart-footer"
    },
    "children": ["flex-layout.col#minicart-footer"]
  },
  "flex-layout.col#minicart-footer": {
    "children": ["minicart-summary", "minicart-checkout-button"]
  },
  "minicart-product-list": {
    "blocks": ["product-list#minicart"]
  },
  "product-list#minicart": {
    "blocks": ["product-list-content-mobile"]
  },
  "minicart-summary": {
    "blocks": ["checkout-summary.compact#minicart"]
  },
  
  "checkout-summary.compact#minicart": {
    "children": ["summary-totalizers#minicart"],
    "props": {
      "totalizersToShow": ["Items", "Discounts"]
    }
  },
  "summary-totalizers#minicart": {
    "props": {
      "showTotal": true,
      "showDeliveryTotal": false
    }
  },
  "minicart-empty-state": {
    "children": ["flex-layout.row#empty-state"]
  },
  "flex-layout.row#empty-state": {
    "children": ["flex-layout.col#empty-state"]
  },
  "flex-layout.col#empty-state": {
    "children": [
      "icon-cart#minicart-empty-state",
      "rich-text#minicart-default-empty-state"
    ],
    "props": {
      "horizontalAlign": "center",
      "verticalAlign": "middle",
      "rowGap": 5
    }
  },
  "icon-cart#minicart-empty-state": {
    "props": {
      "size": 64,
      "blockClass": "minicart-empty-state"
    }
  },
  "rich-text#minicart-default-empty-state": {
    "props": {
      "text": "Seu carrinho está vazio."
    }
  }
 }