{
	"vtex.menu@2.x:menu#menu-departments": {
		"children": [
			"menu-item#all-departments", 
			"menu-item#notas",
			"menu-item#vendedor",
			"menu-item#cartao",
			"menu-item#trabalhe",
			"menu-item#ofertas"
		]
	},
	"menu-item#notas": {
		"props": {
			"id": "menu-item-notas",
			"type": "custom",
			"highlight": false,
			"itemProps": {
				"type": "internal",
				"href": "#",
				"noFollow": false,
				"tagTitle": "2ª via de notas",
				"text": "2ª via de notas"
			}
		}
	},
	"menu-item#vendedor": {
		"props": {
			"id": "menu-item-vendedor",
			"type": "custom",
			"highlight": false,
			"itemProps": {
				"type": "internal",
				"href": "#",
				"noFollow": false,
				"tagTitle": "Fale com o Vendedor",
				"text": "Fale com o Vendedor"
			}
		}
	},
	"menu-item#cartao": {
		"props": {
			"id": "menu-item-cartao",
			"type": "custom",
			"highlight": false,
			"itemProps": {
				"type": "internal",
				"href": "#",
				"noFollow": false,
				"tagTitle": "Tire o Cartão Ferragens Paraíba",
				"text": "Tire o Cartão Ferragens Paraíba"
			}
		}
	},

	"menu-item#trabalhe": {
		"props": {
			"id": "menu-item-trabalhe",
			"type": "custom",
			"highlight": false,
			"itemProps": {
				"type": "internal",
				"href": "/trabalhe-conosco",
				"noFollow": false,
				"tagTitle": "Trabalhe Conosco",
				"text": "Trabalhe Conosco"
			}
		}
	},
	
	"menu-item#ofertas": {
		"props": {
			"id": "menu-item-ofertas",
			"type": "custom",
			"highlight": false,
			"itemProps": {
				"type": "internal",
				"href": "/ofertas",
				"noFollow": false,
				"tagTitle": "Ofertas",
				"text": "Ofertas"
			}
		}
	},
	
	"menu-item#all-departments": {
		"props": {
			"id": "menu-item-custom-categories",
			"type": "custom",
			"iconId": null,
			"highlight": true,
			"blockClass": "dropdown-departamentos",
			"itemProps": {
				"type": "internal",
				"href": "#",
				"noFollow": true,
				"tagTitle": "COMPRE POR TODA A LOJA",
				"text": "COMPRE POR TODA A LOJA"
			},
			"iconProps": {
				"id": "mpa-bars",
				"size": 16,
				"viewBox": "0 0 16 16",
				"activeClassName": "c-action-primary"
			}
		},
		"blocks": ["vtex.menu@2.x:submenu#categories"]
	},
	"vtex.menu@2.x:submenu#categories": {
		"children": ["category-menu#main-menu"]
	}
}
