{

  "flex-layout.col#menu-categorias--item1": {
    "children": [
        "image#menu-categorias--item1--image",
        "rich-text#menu-categorias--item1--title"
    ],
    "props": {
        "horizontalAlign": "center",
        "preventVerticalStretch": false,
        "verticalAlign": "top"
    }
  },
  "image#menu-categorias--item1--image": {
    "props": {
        "src": "assets/banners/ico-marcenaria.png",
        "link": {
            "url": "/marcenaria",
            "attributeTitle": "Marcenaria"
        },
        "blockClass":"img-category",
        "alt": "Marcenaria"
    }
  },
  "rich-text#menu-categorias--item1--title": {
    "props": {
    "textAlignment": "CENTER",
    "textPosition": "CENTER",
    "text": "[Marcenaria](/marcenaria)",
    "blockClass":"text-category",
    "textColor": "c-on-secodary"
    }
  },
  "flex-layout.col#menu-categorias--item2": {
    "children": [
        "image#menu-categorias--item2--image",
        "rich-text#menu-categorias--item2--title"
    ]
  },
  "image#menu-categorias--item2--image": {
    "props": {
        "src": "assets/banners/ico-pintura.png",
        "link": {
            "url": "/pintura",
            "attributeTitle": "Pintura"
        },
        "blockClass":"img-category",
        "alt": "Pintura"
    }
  },
  "rich-text#menu-categorias--item2--title": {
    "props": {
    "textAlignment": "CENTER",
    "textPosition": "CENTER",
    "text": "[Pintura](/pintura)",
    "blockClass":"text-category",
    "textColor": "c-on-secodary"
    }
  },
  "flex-layout.col#menu-categorias--item3": {
    "children": [
        "image#menu-categorias--item3--image",
        "rich-text#menu-categorias--item3--title"
    ]
  },
  "image#menu-categorias--item3--image": {
    "props": {
        "src": "assets/banners/ico-bombas.png",
        "link": {
            "url": "/bombas",
            "attributeTitle": "Bombas"
        },
        "blockClass":"img-category",
        "alt": "Bombas"
    }
  },
  "rich-text#menu-categorias--item3--title": {
    "props": {
    "textAlignment": "CENTER",
    "textPosition": "CENTER",
    "text": "[Bombas](/bombas)",
    "blockClass":"text-category",
    "textColor": "c-on-secodary"
    }
  },
  "flex-layout.col#menu-categorias--item4": {
    "children": [
        "image#menu-categorias--item4--image",
        "rich-text#menu-categorias--item4--title"
    ]
  },
  "image#menu-categorias--item4--image": {
    "props": {
        "src": "assets/banners/ico-ferramentaseletricas.png",
        "link": {
            "url": "/ferramentaseletricas",
            "attributeTitle": "Ferramentas Elétricas"
        },
        "blockClass":"img-category",
        "alt": "Ferramentas Elétricas"
    }
  },
  "rich-text#menu-categorias--item4--title": {
    "props": {
    "textAlignment": "CENTER",
    "textPosition": "CENTER",
    "text": "[Ferramentas Elétricas](/ferramentas-eletricas)",
    "blockClass":"text-category",
    "textColor": "c-on-secodary"
    }
  },
  "flex-layout.col#menu-categorias--item5": {
    "children": [
        "image#menu-categorias--item5--image",
        "rich-text#menu-categorias--item5--title"
    ]
  },
  "image#menu-categorias--item5--image": {
    "props": {
        "src": "assets/banners/ico-pet.png",
        "link": {
            "url": "/utilidades/pet",
            "attributeTitle": "PetShop"
        },
        "blockClass":"img-category",
        "alt": "PetShop"
    }
  },
  "rich-text#menu-categorias--item5--title": {
    "props": {
    "textAlignment": "CENTER",
    "textPosition": "CENTER",
    "text": "[PetShop](/PetShop)",
    "blockClass":"text-category",
    "textColor": "c-on-secodary"
    }
  },
  "flex-layout.col#menu-categorias--item6": {
    "children": [
        "image#menu-categorias--item6--image",
        "rich-text#menu-categorias--item6--title"
    ]
  },
  "image#menu-categorias--item6--image": {
    "props": {
        "src": "assets/banners/ico-construcao.png",
        "link": {
            "url": "/construcao",
            "attributeTitle": "Construção"
        },
        "blockClass":"img-category",
        "alt": "Construção"
    }
  },
  "rich-text#menu-categorias--item6--title": {
    "props": {
    "textAlignment": "CENTER",
    "textPosition": "CENTER",
    "text": "[Construção](/construcao)",
    "blockClass":"text-category",
    "textColor": "c-on-secodary"
    }
  },
  "flex-layout.col#menu-categorias--item7": {
    "children": [
        "image#menu-categorias--item7--image",
        "rich-text#menu-categorias--item7--title"
    ]
  },
  "image#menu-categorias--item7--image": {
    "props": {
        "src": "assets/banners/ico-ferramentasmanuais.png",
        "link": {
            "url": "/ferramentasmanuais",
            "attributeTitle": "Ferramentas Manuais"
        },
        "blockClass":"img-category",
        "alt": "Ferramentas Manuais"
    }
  },
  "rich-text#menu-categorias--item7--title": {
    "props": {
    "textAlignment": "CENTER",
    "textPosition": "CENTER",
    "text": "[Ferramentas Manuais](/ferramentas-manuais)",
    "blockClass":"text-category",
    "textColor": "c-on-secodary"
    }
  },
  "flex-layout.col#menu-categorias--item8": {
    "children": [
        "image#menu-categorias--item8--image",
        "rich-text#menu-categorias--item8--title"
    ]
  },
  "image#menu-categorias--item8--image": {
    "props": {
        "src": "assets/banners/ico-epi.png",
        "link": {
            "url": "/epi",
            "attributeTitle": "EPI"
        },
        "blockClass":"img-category",
        "alt": "EPI"
    }
  },
  "rich-text#menu-categorias--item8--title": {
    "props": {
    "textAlignment": "CENTER",
    "textPosition": "CENTER",
    "text": "[EPI](/epi)",
    "blockClass":"text-category",
    "textColor": "c-on-secodary"
    }
  },
  "flex-layout.col#menu-categorias--item9": {
    "children": [
        "image#menu-categorias--item9--image",
        "rich-text#menu-categorias--item9--title"
    ]
  },
  "image#menu-categorias--item9--image": {
    "props": {
        "src": "assets/banners/ico-maquinas.png",
        "link": {
            "url": "/maquinas",
            "attributeTitle": "Máquinas"
        },
        "blockClass":"img-category",
        "alt": "Máquinas"
    }
  },
  "rich-text#menu-categorias--item9--title": {
    "props": {
    "textAlignment": "CENTER",
    "textPosition": "CENTER",
    "text": "[Máquinas](/maquinas)",
    "blockClass":"text-category",
    "textColor": "c-on-secodary"
    }
  },




  //Brand
  "flex-layout.col#menu-brand--item1": {
    "children": [
        "image#menu-brand--item1--image"
    ],
    "props": {
        "horizontalAlign": "center",
        "preventVerticalStretch": false,
        "verticalAlign": "top"
    }
  },
  "image#menu-brand--item1--image": {
    "props": {
        "src": "assets/banners/brand1.png",
        "link": {
            "url": "/Sofa",
            "attributeTitle": "Sofa"
        },
        "blockClass":"img-brand",
        "alt": "Sofa"
    }
  },
  "flex-layout.col#menu-brand--item2": {
    "children": [
        "image#menu-brand--item2--image"
    ]
  },
  "image#menu-brand--item2--image": {
    "props": {
        "src": "assets/banners/brand2.png",
        "link": {
            "url": "/eletro",
            "attributeTitle": "Eletro"
        },
        "blockClass":"img-brand",
        "alt": "Eletro"
    }
  },
  "flex-layout.col#menu-brand--item3": {
    "children": [
        "image#menu-brand--item3--image"
    ]
  },
  "image#menu-brand--item3--image": {
    "props": {
        "src": "assets/banners/brand3.png",
        "link": {
            "url": "/janela",
            "attributeTitle": "Janela"
        },
        "blockClass":"img-brand",
        "alt": "Janela"
    }
  },
  "flex-layout.col#menu-brand--item4": {
    "children": [
        "image#menu-brand--item4--image"
    ]
  },
  "image#menu-brand--item4--image": {
    "props": {
        "src": "assets/banners/brand4.png",
        "link": {
            "url": "/Escrivaninha",
            "attributeTitle": "Escrivaninha"
        },
        "blockClass":"img-brand",
        "alt": "Escrivaninha"
    }
  },
  "flex-layout.col#menu-brand--item5": {
    "children": [
        "image#menu-brand--item5--image"
    ]
  },
  "image#menu-brand--item5--image": {
    "props": {
        "src": "assets/banners/brand5.png",
        "link": {
            "url": "/Jardinagem",
            "attributeTitle": "Jardinagem"
        },
        "blockClass":"img-brand",
        "alt": "Jardinagem"
    }
  },
  "flex-layout.col#menu-brand--item6": {
    "children": [
        "image#menu-brand--item6--image"
    ]
  },
  "image#menu-brand--item6--image": {
    "props": {
        "src": "assets/banners/brand6.png",
        "link": {
            "url": "/Serra",
            "attributeTitle": "Serra"
        },
        "blockClass":"img-brand",
        "alt": "Serra"
    }
  },
  "flex-layout.col#menu-brand--item7": {
    "children": [
        "image#menu-brand--item7--image"
    ]
  },
  "image#menu-brand--item7--image": {
    "props": {
        "src": "assets/banners/brand7.png",
        "link": {
            "url": "/Iluminação",
            "attributeTitle": "Iluminação"
        },
        "blockClass":"img-brand",
        "alt": "Iluminação"
    }
  },

  //SUB MENU MOBILE
  "flex-layout.col#menu-submobile--item1": {
    "children": [
        "image#menu-submobile--item1--image",
        "link#menu-submobile--item1"
    ],
    "props": {
        "horizontalAlign": "center",
        "preventVerticalStretch": false,
        "verticalAlign": "top"
    }
  },
  "image#menu-submobile--item1--image": {
    "props": {
        "src": "assets/banners/submenu1-mob.png",
        "link": {
            "url": "#",
            "attributeTitle": "2ª via Nota"
        },
        "blockClass":"img-menu-mob",
        "alt": "2ª via Nota"
    }
  },
  "link#menu-submobile--item1": {
    "props": {
      "href": "#",
      "label": "2ª via Nota",
      "blockClass":"submenu-tilte-mob"
    }
  },
  "flex-layout.col#menu-submobile--item2": {
    "children": [
        "image#menu-submobile--item2--image",
        "link#menu-submobile--item2"
    ],
    "props": {
        "horizontalAlign": "center",
        "preventVerticalStretch": false,
        "verticalAlign": "top"
    }
  },
  "image#menu-submobile--item2--image": {
    "props": {
        "src": "assets/banners/submenu2-mob.png",
        "link": {
            "url": "#",
            "attributeTitle": "Fale com o Vendedor"
        },
        "blockClass":"img-menu-mob",
        "alt": "Fale com o Vendedor"
    }
  },
  "link#menu-submobile--item2": {
    "props": {
      "href": "#",
      "label": "Fale com o Vendedor",
      "blockClass":"submenu-tilte-mob"
    }
  },
  "flex-layout.col#menu-submobile--item3": {
    "children": [
        "image#menu-submobile--item3--image",
        "link#menu-submobile--item3"
    ],
    "props": {
        "horizontalAlign": "center",
        "preventVerticalStretch": false,
        "verticalAlign": "top"
    }
  },
  "image#menu-submobile--item3--image": {
    "props": {
        "src": "assets/banners/submenu3-mob.png",
        "link": {
            "url": "#",
            "attributeTitle": "Cartão Ferragens Paraíba"
        },
        "blockClass":"img-menu-mob",
        "alt": "Cartão Ferragens Paraíba"
    }
  },
  "link#menu-submobile--item3": {
    "props": {
      "href": "#",
      "label": "Cartão Ferragens Paraíba",
      "blockClass":"submenu-tilte-mob"
    }
  },
  "flex-layout.col#menu-submobile--item4": {
    "children": [
        "image#menu-submobile--item4--image",
        "link#menu-submobile--item4"
    ],
    "props": {
        "horizontalAlign": "center",
        "preventVerticalStretch": false,
        "verticalAlign": "top"
    }
  },
  "image#menu-submobile--item4--image": {
    "props": {
        "src": "assets/banners/submenu4-mob.png",
        "link": {
            "url": "#",
            "attributeTitle": "Nossas Ofertas"
        },
        "blockClass":"img-menu-mob",
        "alt": "Nossas Ofertas"
    }
  },
  "link#menu-submobile--item4": {
    "props": {
      "href": "#",
      "label": "Nossas Ofertas",
      "blockClass":"submenu-tilte-mob"
    }
  }

}